[ {
  "uid" : "edfee916f1c62baf",
  "name" : "Teste Sicredi 1",
  "time" : {
    "start" : 1662336986374,
    "stop" : 1662337001343,
    "duration" : 14969
  },
  "status" : "passed",
  "severity" : "normal"
}, {
  "uid" : "a07ba7ae6a6216e3",
  "name" : "Teste Sicredi 2",
  "time" : {
    "start" : 1662337001668,
    "stop" : 1662337018370,
    "duration" : 16702
  },
  "status" : "passed",
  "severity" : "normal"
} ]