{
  "uid" : "83edc06c07f9ae9e47eb6dd1b683e4e2",
  "name" : "packages",
  "children" : [ {
    "name" : "SicrediPageTeste",
    "children" : [ {
      "name" : "testeSicredi1",
      "uid" : "edfee916f1c62baf",
      "parentUid" : "ae7ba25cff6060a3634cabc3644e02ae",
      "status" : "passed",
      "time" : {
        "start" : 1662336986374,
        "stop" : 1662337001343,
        "duration" : 14969
      },
      "flaky" : false,
      "parameters" : [ ]
    }, {
      "name" : "testeSicredi2",
      "uid" : "a07ba7ae6a6216e3",
      "parentUid" : "ae7ba25cff6060a3634cabc3644e02ae",
      "status" : "passed",
      "time" : {
        "start" : 1662337001668,
        "stop" : 1662337018370,
        "duration" : 16702
      },
      "flaky" : false,
      "parameters" : [ ]
    } ],
    "uid" : "ae7ba25cff6060a3634cabc3644e02ae"
  } ]
}