{
  "8618ac3de4037fd231cc68f30027f350" : {
    "statistic" : {
      "failed" : 0,
      "broken" : 0,
      "skipped" : 0,
      "passed" : 1,
      "unknown" : 0,
      "total" : 1
    },
    "items" : [ {
      "uid" : "edfee916f1c62baf",
      "status" : "passed",
      "time" : {
        "start" : 1662336986374,
        "stop" : 1662337001343,
        "duration" : 14969
      }
    } ]
  },
  "16d063774c5b494b561bba00342d6d4c" : {
    "statistic" : {
      "failed" : 0,
      "broken" : 0,
      "skipped" : 0,
      "passed" : 1,
      "unknown" : 0,
      "total" : 1
    },
    "items" : [ {
      "uid" : "a07ba7ae6a6216e3",
      "status" : "passed",
      "time" : {
        "start" : 1662337001668,
        "stop" : 1662337018370,
        "duration" : 16702
      }
    } ]
  }
}